{
  "content": [
    {
      "id": 60,
      "code": "01",
      "typeEntreprise": "FABRIQUANT",
      "raisonSociale": "01",
      "ville": null,
      "localite": null,
      "groupeEntreprise": null,
      "dateAttachementGroupe": null,
      "dateDetachementGroupe": null,
      "responsablesGroupe": [],
      "dateActivation": null,
      "dateDesactivation": null,
      "statutEntreprise": null,
      "createdAt": null,
      "createdById": null,
      "updatedAt": null,
      "updatedById": null,
      "deletedAt": null,
      "deletedById": null
    },
    {
      "id": 6881,
      "code": "G10296",
      "typeEntreprise": "CLIENT",
      "raisonSociale": "0CATALONIA",
      "ville": "LAAYOUNE",
      "localite": "",
      "groupeEntreprise": null,
      "dateAttachementGroupe": null,
      "dateDetachementGroupe": null,
      "responsablesGroupe": [],
      "dateActivation": null,
      "dateDesactivation": null,
      "statutEntreprise": null,
      "createdAt": null,
      "createdById": null,
      "updatedAt": null,
      "updatedById": null,
      "deletedAt": null,
      "deletedById": null
    },
    {
      "id": 3896,
      "code": "G0000",
      "typeEntreprise": "CLIENT",
      "raisonSociale": "10 MARS",
      "ville": "CASABLANCA",
      "localite": "ESSALAMA 3 SIDI OTHMANE",
      "groupeEntreprise": null,
      "dateAttachementGroupe": null,
      "dateDetachementGroupe": null,
      "responsablesGroupe": [],
      "dateActivation": null,
      "dateDesactivation": null,
      "statutEntreprise": null,
      "createdAt": null,
      "createdById": null,
      "updatedAt": null,
      "updatedById": null,
      "deletedAt": null,
      "deletedById": null
    },
    {
      "id": 13244,
      "code": "G6593",
      "typeEntreprise": "CLIENT",
      "raisonSociale": "10 RAMADAN",
      "ville": "TARRAST",
      "localite": "",
      "groupeEntreprise": null,
      "dateAttachementGroupe": null,
      "dateDetachementGroupe": null,
      "responsablesGroupe": [],
      "dateActivation": null,
      "dateDesactivation": null,
      "statutEntreprise": null,
      "createdAt": null,
      "createdById": null,
      "updatedAt": null,
      "updatedById": null,
      "deletedAt": null,
      "deletedById": null
    },
    {
      "id": 11724,
      "code": "G4186",
      "typeEntreprise": "CLIENT",
      "raisonSociale": "11 JANVIER",
      "ville": "TEMARA",
      "localite": "",
      "groupeEntreprise": null,
      "dateAttachementGroupe": null,
      "dateDetachementGroupe": null,
      "responsablesGroupe": [],
      "dateActivation": null,
      "dateDesactivation": null,
      "statutEntreprise": null,
      "createdAt": null,
      "createdById": null,
      "updatedAt": null,
      "updatedById": null,
      "deletedAt": null,
      "deletedById": null
    },
    {
      "id": 7739,
      "code": "G2753",
      "typeEntreprise": "CLIENT",
      "raisonSociale": "11_JANVIER",
      "ville": "MARRAKECH",
      "localite": "EL MANSOUR",
      "groupeEntreprise": null,
      "dateAttachementGroupe": null,
      "dateDetachementGroupe": null,
      "responsablesGroupe": [],
      "dateActivation": null,
      "dateDesactivation": null,
      "statutEntreprise": null,
      "createdAt": null,
      "createdById": null,
      "updatedAt": null,
      "updatedById": null,
      "deletedAt": null,
      "deletedById": null
    },
    {
      "id": 12940,
      "code": "G12529",
      "typeEntreprise": "CLIENT",
      "raisonSociale": "12 MARS",
      "ville": "GZENAYA",
      "localite": null,
      "groupeEntreprise": null,
      "dateAttachementGroupe": null,
      "dateDetachementGroupe": null,
      "responsablesGroupe": [],
      "dateActivation": null,
      "dateDesactivation": null,
      "statutEntreprise": null,
      "createdAt": null,
      "createdById": null,
      "updatedAt": null,
      "updatedById": null,
      "deletedAt": null,
      "deletedById": null
    },
    {
      "id": 8121,
      "code": "G11494",
      "typeEntreprise": "CLIENT",
      "raisonSociale": "15 MARS",
      "ville": "MEKNES",
      "localite": "WISLAN EL BASSATINE",
      "groupeEntreprise": null,
      "dateAttachementGroupe": null,
      "dateDetachementGroupe": null,
      "responsablesGroupe": [],
      "dateActivation": null,
      "dateDesactivation": null,
      "statutEntreprise": null,
      "createdAt": null,
      "createdById": null,
      "updatedAt": null,
      "updatedById": null,
      "deletedAt": null,
      "deletedById": null
    },
    {
      "id": 4315,
      "code": "G6628",
      "typeEntreprise": "CLIENT",
      "raisonSociale": "15 RAMADAN",
      "ville": "CASABLANCA",
      "localite": "D.OMAR ICE001666943000054",
      "groupeEntreprise": null,
      "dateAttachementGroupe": null,
      "dateDetachementGroupe": null,
      "responsablesGroupe": [],
      "dateActivation": null,
      "dateDesactivation": null,
      "statutEntreprise": null,
      "createdAt": null,
      "createdById": null,
      "updatedAt": null,
      "updatedById": null,
      "deletedAt": null,
      "deletedById": null
    },
    {
      "id": 9293,
      "code": "G1495",
      "typeEntreprise": "CLIENT",
      "raisonSociale": "16 NOVEMBRE",
      "ville": "RABAT",
      "localite": "AGDAL",
      "groupeEntreprise": null,
      "dateAttachementGroupe": null,
      "dateDetachementGroupe": null,
      "responsablesGroupe": [],
      "dateActivation": null,
      "dateDesactivation": null,
      "statutEntreprise": null,
      "createdAt": null,
      "createdById": null,
      "updatedAt": null,
      "updatedById": null,
      "deletedAt": null,
      "deletedById": null
    },
    {
      "id": 2247,
      "code": "G10403",
      "typeEntreprise": "CLIENT",
      "raisonSociale": "19 MAI",
      "ville": "BERKANE",
      "localite": "",
      "groupeEntreprise": null,
      "dateAttachementGroupe": null,
      "dateDetachementGroupe": null,
      "responsablesGroupe": [],
      "dateActivation": null,
      "dateDesactivation": null,
      "statutEntreprise": null,
      "createdAt": null,
      "createdById": null,
      "updatedAt": null,
      "updatedById": null,
      "deletedAt": null,
      "deletedById": null
    },
    {
      "id": 2614,
      "code": "G5527",
      "typeEntreprise": "CLIENT",
      "raisonSociale": "2000",
      "ville": "BRADIA",
      "localite": "",
      "groupeEntreprise": null,
      "dateAttachementGroupe": null,
      "dateDetachementGroupe": null,
      "responsablesGroupe": [],
      "dateActivation": null,
      "dateDesactivation": null,
      "statutEntreprise": null,
      "createdAt": null,
      "createdById": null,
      "updatedAt": null,
      "updatedById": null,
      "deletedAt": null,
      "deletedById": null
    },
    {
      "id": 2333,
      "code": "G4053",
      "typeEntreprise": "CLIENT",
      "raisonSociale": "2000",
      "ville": "BERRECHID",
      "localite": "",
      "groupeEntreprise": null,
      "dateAttachementGroupe": null,
      "dateDetachementGroupe": null,
      "responsablesGroupe": [],
      "dateActivation": null,
      "dateDesactivation": null,
      "statutEntreprise": null,
      "createdAt": null,
      "createdById": null,
      "updatedAt": null,
      "updatedById": null,
      "deletedAt": null,
      "deletedById": null
    },
    {
      "id": 11677,
      "code": "G4187",
      "typeEntreprise": "CLIENT",
      "raisonSociale": "2000",
      "ville": "TEMARA",
      "localite": "",
      "groupeEntreprise": null,
      "dateAttachementGroupe": null,
      "dateDetachementGroupe": null,
      "responsablesGroupe": [],
      "dateActivation": null,
      "dateDesactivation": null,
      "statutEntreprise": null,
      "createdAt": null,
      "createdById": null,
      "updatedAt": null,
      "updatedById": null,
      "deletedAt": null,
      "deletedById": null
    },
    {
      "id": 11950,
      "code": "G4572",
      "typeEntreprise": "CLIENT",
      "raisonSociale": "2000",
      "ville": "TETOUAN",
      "localite": "",
      "groupeEntreprise": null,
      "dateAttachementGroupe": null,
      "dateDetachementGroupe": null,
      "responsablesGroupe": [],
      "dateActivation": null,
      "dateDesactivation": null,
      "statutEntreprise": null,
      "createdAt": null,
      "createdById": null,
      "updatedAt": null,
      "updatedById": null,
      "deletedAt": null,
      "deletedById": null
    },
    {
      "id": 11327,
      "code": "G2210",
      "typeEntreprise": "CLIENT",
      "raisonSociale": "2000",
      "ville": "TANGER",
      "localite": "",
      "groupeEntreprise": null,
      "dateAttachementGroupe": null,
      "dateDetachementGroupe": null,
      "responsablesGroupe": [],
      "dateActivation": null,
      "dateDesactivation": null,
      "statutEntreprise": null,
      "createdAt": null,
      "createdById": null,
      "updatedAt": null,
      "updatedById": null,
      "deletedAt": null,
      "deletedById": null
    },
    {
      "id": 1932,
      "code": "G8352",
      "typeEntreprise": "CLIENT",
      "raisonSociale": "20 AOUT",
      "ville": "BENI MELLAL",
      "localite": "",
      "groupeEntreprise": null,
      "dateAttachementGroupe": null,
      "dateDetachementGroupe": null,
      "responsablesGroupe": [],
      "dateActivation": null,
      "dateDesactivation": null,
      "statutEntreprise": null,
      "createdAt": null,
      "createdById": null,
      "updatedAt": null,
      "updatedById": null,
      "deletedAt": null,
      "deletedById": null
    },
    {
      "id": 12321,
      "code": "G8580",
      "typeEntreprise": "CLIENT",
      "raisonSociale": "20 AOUT",
      "ville": "KASBA TADLA",
      "localite": "LOT LAMHIRZAT,BLOC N°34",
      "groupeEntreprise": null,
      "dateAttachementGroupe": null,
      "dateDetachementGroupe": null,
      "responsablesGroupe": [],
      "dateActivation": null,
      "dateDesactivation": null,
      "statutEntreprise": null,
      "createdAt": null,
      "createdById": null,
      "updatedAt": null,
      "updatedById": null,
      "deletedAt": null,
      "deletedById": null
    },
    {
      "id": 9964,
      "code": "G1743",
      "typeEntreprise": "CLIENT",
      "raisonSociale": "20 AOUT",
      "ville": "SALE",
      "localite": "TABRIQUET",
      "groupeEntreprise": null,
      "dateAttachementGroupe": null,
      "dateDetachementGroupe": null,
      "responsablesGroupe": [],
      "dateActivation": null,
      "dateDesactivation": null,
      "statutEntreprise": null,
      "createdAt": null,
      "createdById": null,
      "updatedAt": null,
      "updatedById": null,
      "deletedAt": null,
      "deletedById": null
    },
    {
      "id": 11550,
      "code": "G9533",
      "typeEntreprise": "CLIENT",
      "raisonSociale": "20 AOUT",
      "ville": "TAROUDANNT",
      "localite": "",
      "groupeEntreprise": null,
      "dateAttachementGroupe": null,
      "dateDetachementGroupe": null,
      "responsablesGroupe": [],
      "dateActivation": null,
      "dateDesactivation": null,
      "statutEntreprise": null,
      "createdAt": null,
      "createdById": null,
      "updatedAt": null,
      "updatedById": null,
      "deletedAt": null,
      "deletedById": null
    }
  ],
  "pageable": {
    "sort": {
      "sorted": false,
      "unsorted": true,
      "empty": true
    },
    "pageNumber": 0,
    "pageSize": 20,
    "offset": 0,
    "unpaged": false,
    "paged": true
  },
  "last": false,
  "totalPages": 678,
  "totalElements": 13547,
  "first": true,
  "sort": {
    "sorted": false,
    "unsorted": true,
    "empty": true
  },
  "numberOfElements": 20,
  "size": 20,
  "number": 0,
  "empty": false
}
